test.vcd
$date
	Wed Mar 29 20:50:10 2023
$end
$version
	Icarus Verilog
$end
$timescale
	1s
$end
$scope module riscv32_testbench $end
$var wire 8 ! HEX4 [7:0] $end
$var wire 8 " HEX5 [7:0] $end
$var wire 10 # LEDR [9:0] $end
$var wire 8 $ HEX3 [7:0] $end
$var wire 8 % HEX2 [7:0] $end
$var wire 8 & HEX1 [7:0] $end
$var wire 8 ' HEX0 [7:0] $end
$var parameter 32 ( CLOCK_PERIOD $end
$var parameter 32 ) NUM_KEYS $end
$var parameter 32 * NUM_LEDS $end
$var parameter 32 + NUM_SEGMENTS $end
$var reg 1 , CLOCK_50 $end
$var reg 4 - KEY [3:0] $end
$scope module dut $end
$var wire 1 , CLOCK_50 $end
$var wire 8 . HEX4 [7:0] $end
$var wire 8 / HEX5 [7:0] $end
$var wire 4 0 KEY [3:0] $end
$var wire 1 1 clkSelect $end
$var wire 1 2 reset $end
$var wire 1 3 store_3 $end
$var wire 1 4 store_2 $end
$var wire 1 5 store_1 $end
$var wire 1 6 store $end
$var wire 5 7 rs2_3 [4:0] $end
$var wire 5 8 rs2_2 [4:0] $end
$var wire 5 9 rs2_1 [4:0] $end
$var wire 5 : rs2 [4:0] $end
$var wire 5 ; rs1_3 [4:0] $end
$var wire 5 < rs1_2 [4:0] $end
$var wire 5 = rs1_1 [4:0] $end
$var wire 5 > rs1 [4:0] $end
$var wire 5 ? rd_3 [4:0] $end
$var wire 5 @ rd_2 [4:0] $end
$var wire 5 A rd_1 [4:0] $end
$var wire 5 B rd [4:0] $end
$var wire 15 C pc [14:0] $end
$var wire 7 D opcode_3 [6:0] $end
$var wire 7 E opcode_2 [6:0] $end
$var wire 7 F opcode_1 [6:0] $end
$var wire 7 G opcode [6:0] $end
$var wire 32 H mem_rd_data [31:0] $end
$var wire 1 I lui_3 $end
$var wire 1 J lui_2 $end
$var wire 1 K lui_1 $end
$var wire 1 L lui $end
$var wire 32 M load_out [31:0] $end
$var wire 1 N load_3 $end
$var wire 1 O load_2 $end
$var wire 1 P load_1 $end
$var wire 1 Q load $end
$var wire 1 R jalr_3 $end
$var wire 1 S jalr_2 $end
$var wire 1 T jalr_1 $end
$var wire 1 U jalr $end
$var wire 1 V jal_3 $end
$var wire 1 W jal_2 $end
$var wire 1 X jal_1 $end
$var wire 1 Y jal $end
$var wire 32 Z ins_out [31:0] $end
$var wire 32 [ imm_u_3 [31:0] $end
$var wire 32 \ imm_u_2 [31:0] $end
$var wire 32 ] imm_u_1 [31:0] $end
$var wire 32 ^ imm_u [31:0] $end
$var wire 12 _ imm_s_3 [11:0] $end
$var wire 12 ` imm_s_2 [11:0] $end
$var wire 12 a imm_s_1 [11:0] $end
$var wire 12 b imm_s [11:0] $end
$var wire 15 c imm_j_3 [14:0] $end
$var wire 15 d imm_j_2 [14:0] $end
$var wire 15 e imm_j_1 [14:0] $end
$var wire 15 f imm_j [14:0] $end
$var wire 12 g imm_i_3 [11:0] $end
$var wire 12 h imm_i_2 [11:0] $end
$var wire 12 i imm_i_1 [11:0] $end
$var wire 12 j imm_i [11:0] $end
$var wire 13 k imm_b_3 [12:0] $end
$var wire 13 l imm_b_2 [12:0] $end
$var wire 13 m imm_b_1 [12:0] $end
$var wire 13 n imm_b [12:0] $end
$var wire 7 o funct7_3 [6:0] $end
$var wire 7 p funct7_2 [6:0] $end
$var wire 7 q funct7_1 [6:0] $end
$var wire 7 r funct7 [6:0] $end
$var wire 3 s funct3_3 [2:0] $end
$var wire 3 t funct3_2 [2:0] $end
$var wire 3 u funct3_1 [2:0] $end
$var wire 3 v funct3 [2:0] $end
$var wire 32 w div_clk [31:0] $end
$var wire 1 x branch_3 $end
$var wire 1 y branch_2 $end
$var wire 1 z branch_1 $end
$var wire 1 { branch $end
$var wire 1 | auipc_3 $end
$var wire 1 } auipc_2 $end
$var wire 1 ~ auipc_1 $end
$var wire 1 !" auipc $end
$var wire 1 "" arith_3 $end
$var wire 1 #" arith_2 $end
$var wire 1 $" arith_1 $end
$var wire 1 %" arith $end
$var wire 32 &" alu_out [31:0] $end
$var wire 10 '" LEDR [9:0] $end
$var wire 8 (" HEX3 [7:0] $end
$var wire 8 )" HEX2 [7:0] $end
$var wire 8 *" HEX1 [7:0] $end
$var wire 8 +" HEX0 [7:0] $end
$var parameter 32 ," ASCII_LEN $end
$var parameter 32 -" CODE_ADDR $end
$var parameter 64 ." CODE_FILE $end
$var parameter 32 /" CODE_SIZE $end
$var parameter 32 0" DATA_ADDR $end
$var parameter 64 1" DATA_FILE $end
$var parameter 32 2" DATA_SIZE $end
$var parameter 32 3" DAT_MEM_LEN $end
$var parameter 32 4" DIV_CLK_LEN $end
$var parameter 32 5" F3_LEN $end
$var parameter 32 6" F7_LEN $end
$var parameter 32 7" IMM_B_LEN $end
$var parameter 32 8" IMM_I_LEN $end
$var parameter 32 9" IMM_J_LEN $end
$var parameter 32 :" IMM_S_LEN $end
$var parameter 32 ;" IMM_U_LEN $end
$var parameter 32 <" INS_LEN $end
$var parameter 32 =" INS_MEM_LEN $end
$var parameter 32 >" NUM_KEYS $end
$var parameter 32 ?" NUM_LEDS $end
$var parameter 32 @" NUM_REGS $end
$var parameter 32 A" NUM_SEGMENTS $end
$var parameter 32 B" OP_LEN $end
$var parameter 32 C" RV_LEN $end
$var parameter 32 D" WHICH_CLK $end
$var reg 32 E" a [31:0] $end
$var reg 32 F" alu_out_3 [31:0] $end
$var reg 1 G" arith_4 $end
$var reg 1 H" auipc_4 $end
$var reg 32 I" auipc_temp_2 [31:0] $end
$var reg 32 J" auipc_temp_3 [31:0] $end
$var reg 32 K" b [31:0] $end
$var reg 1 L" counter_en $end
$var reg 3 M" funct3_4 [2:0] $end
$var reg 2 N" halt [1:0] $end
$var reg 15 O" incr_val [14:0] $end
$var reg 32 P" ins [31:0] $end
$var reg 32 Q" ins_1 [31:0] $end
$var reg 32 R" ins_2 [31:0] $end
$var reg 32 S" ins_3 [31:0] $end
$var reg 1 T" jal_4 $end
$var reg 1 U" jalr_4 $end
$var reg 32 V" jmp_temp_2 [31:0] $end
$var reg 32 W" jmp_temp_3 [31:0] $end
$var reg 1 X" load_4 $end
$var reg 1 Y" load_5 $end
$var reg 1 Z" lui_4 $end
$var reg 15 [" mem_addr [14:0] $end
$var reg 32 \" mem_wr_data [31:0] $end
$var reg 1 ]" mem_wr_en $end
$var reg 1 ^" op $end
$var reg 5 _" rd_4 [4:0] $end
$var reg 1 `" set $end
$scope module alu $end
$var wire 32 a" a [31:0] $end
$var wire 32 b" b [31:0] $end
$var wire 1 ^" op $end
$var wire 7 c" funct7 [6:0] $end
$var wire 3 d" funct3 [2:0] $end
$var parameter 32 e" F3_LEN $end
$var parameter 32 f" F7_LEN $end
$var parameter 32 g" N $end
$var reg 32 h" out [31:0] $end
$upscope $end
$scope module cdiv $end
$var wire 1 , clk $end
$var reg 32 i" div_clk [31:0] $end
$upscope $end
$scope module dat_mem $end
$var wire 15 j" addr [14:0] $end
$var wire 1 1 clk $end
$var wire 32 k" d_in [31:0] $end
$var wire 1 ]" wr_en $end
$var parameter 32 l" ADDR $end
$var parameter 32 m" DATA $end
$var parameter 32 n" DATA_ADDR $end
$var parameter 64 o" DATA_FILE $end
$var parameter 32 p" DATA_SIZE $end
$var reg 32 q" d_out [31:0] $end
$upscope $end
$scope module decoder $end
$var wire 1 %" arith $end
$var wire 1 { branch $end
$var wire 1 1 clk $end
$var wire 32 r" ins [31:0] $end
$var wire 32 s" rs1_val [31:0] $end
$var wire 32 t" rs2_val [31:0] $end
$var wire 1 6 store $end
$var wire 1 L lui $end
$var wire 1 Q load $end
$var wire 1 U jalr $end
$var wire 1 Y jal $end
$var wire 1 !" auipc $end
$var parameter 32 u" F3_LEN $end
$var parameter 32 v" F7_LEN $end
$var parameter 32 w" IMM_B_LEN $end
$var parameter 32 x" IMM_I_LEN $end
$var parameter 32 y" IMM_J_LEN $end
$var parameter 32 z" IMM_S_LEN $end
$var parameter 32 {" IMM_U_LEN $end
$var parameter 32 |" NUM_REGS $end
$var parameter 32 }" OP_LEN $end
$var parameter 32 ~" RV_LEN $end
$var reg 3 !# funct3 [2:0] $end
$var reg 7 "# funct7 [6:0] $end
$var reg 13 ## imm_b [12:0] $end
$var reg 12 $# imm_i [11:0] $end
$var reg 15 %# imm_j [14:0] $end
$var reg 12 &# imm_s [11:0] $end
$var reg 32 '# imm_u [31:0] $end
$var reg 7 (# opcode [6:0] $end
$var reg 5 )# rd [4:0] $end
$var reg 5 *# rs1 [4:0] $end
$var reg 5 +# rs2 [4:0] $end
$upscope $end
$scope module decoder_1 $end
$var wire 1 $" arith $end
$var wire 1 z branch $end
$var wire 1 1 clk $end
$var wire 32 ,# ins [31:0] $end
$var wire 32 -# rs1_val [31:0] $end
$var wire 32 .# rs2_val [31:0] $end
$var wire 1 5 store $end
$var wire 1 K lui $end
$var wire 1 P load $end
$var wire 1 T jalr $end
$var wire 1 X jal $end
$var wire 1 ~ auipc $end
$var parameter 32 /# F3_LEN $end
$var parameter 32 0# F7_LEN $end
$var parameter 32 1# IMM_B_LEN $end
$var parameter 32 2# IMM_I_LEN $end
$var parameter 32 3# IMM_J_LEN $end
$var parameter 32 4# IMM_S_LEN $end
$var parameter 32 5# IMM_U_LEN $end
$var parameter 32 6# NUM_REGS $end
$var parameter 32 7# OP_LEN $end
$var parameter 32 8# RV_LEN $end
$var reg 3 9# funct3 [2:0] $end
$var reg 7 :# funct7 [6:0] $end
$var reg 13 ;# imm_b [12:0] $end
$var reg 12 <# imm_i [11:0] $end
$var reg 15 =# imm_j [14:0] $end
$var reg 12 ># imm_s [11:0] $end
$var reg 32 ?# imm_u [31:0] $end
$var reg 7 @# opcode [6:0] $end
$var reg 5 A# rd [4:0] $end
$var reg 5 B# rs1 [4:0] $end
$var reg 5 C# rs2 [4:0] $end
$upscope $end
$scope module decoder_2 $end
$var wire 1 #" arith $end
$var wire 1 y branch $end
$var wire 1 1 clk $end
$var wire 32 D# ins [31:0] $end
$var wire 32 E# rs1_val [31:0] $end
$var wire 32 F# rs2_val [31:0] $end
$var wire 1 4 store $end
$var wire 1 J lui $end
$var wire 1 O load $end
$var wire 1 S jalr $end
$var wire 1 W jal $end
$var wire 1 } auipc $end
$var parameter 32 G# F3_LEN $end
$var parameter 32 H# F7_LEN $end
$var parameter 32 I# IMM_B_LEN $end
$var parameter 32 J# IMM_I_LEN $end
$var parameter 32 K# IMM_J_LEN $end
$var parameter 32 L# IMM_S_LEN $end
$var parameter 32 M# IMM_U_LEN $end
$var parameter 32 N# NUM_REGS $end
$var parameter 32 O# OP_LEN $end
$var parameter 32 P# RV_LEN $end
$var reg 3 Q# funct3 [2:0] $end
$var reg 7 R# funct7 [6:0] $end
$var reg 13 S# imm_b [12:0] $end
$var reg 12 T# imm_i [11:0] $end
$var reg 15 U# imm_j [14:0] $end
$var reg 12 V# imm_s [11:0] $end
$var reg 32 W# imm_u [31:0] $end
$var reg 7 X# opcode [6:0] $end
$var reg 5 Y# rd [4:0] $end
$var reg 5 Z# rs1 [4:0] $end
$var reg 5 [# rs2 [4:0] $end
$upscope $end
$scope module decoder_3 $end
$var wire 1 "" arith $end
$var wire 1 x branch $end
$var wire 1 1 clk $end
$var wire 32 \# ins [31:0] $end
$var wire 32 ]# rs1_val [31:0] $end
$var wire 32 ^# rs2_val [31:0] $end
$var wire 1 3 store $end
$var wire 1 I lui $end
$var wire 1 N load $end
$var wire 1 R jalr $end
$var wire 1 V jal $end
$var wire 1 | auipc $end
$var parameter 32 _# F3_LEN $end
$var parameter 32 `# F7_LEN $end
$var parameter 32 a# IMM_B_LEN $end
$var parameter 32 b# IMM_I_LEN $end
$var parameter 32 c# IMM_J_LEN $end
$var parameter 32 d# IMM_S_LEN $end
$var parameter 32 e# IMM_U_LEN $end
$var parameter 32 f# NUM_REGS $end
$var parameter 32 g# OP_LEN $end
$var parameter 32 h# RV_LEN $end
$var reg 3 i# funct3 [2:0] $end
$var reg 7 j# funct7 [6:0] $end
$var reg 13 k# imm_b [12:0] $end
$var reg 12 l# imm_i [11:0] $end
$var reg 15 m# imm_j [14:0] $end
$var reg 12 n# imm_s [11:0] $end
$var reg 32 o# imm_u [31:0] $end
$var reg 7 p# opcode [6:0] $end
$var reg 5 q# rd [4:0] $end
$var reg 5 r# rs1 [4:0] $end
$var reg 5 s# rs2 [4:0] $end
$upscope $end
$scope module hex_display $end
$var wire 8 t# ascii_0 [7:0] $end
$var wire 8 u# ascii_1 [7:0] $end
$var wire 8 v# ascii_2 [7:0] $end
$var wire 8 w# ascii_3 [7:0] $end
$var wire 32 x# bytes_4 [31:0] $end
$var wire 1 1 clk $end
$var wire 8 y# HEX3 [7:0] $end
$var wire 8 z# HEX2 [7:0] $end
$var wire 8 {# HEX1 [7:0] $end
$var wire 8 |# HEX0 [7:0] $end
$var parameter 32 }# ASCII_LEN $end
$var parameter 32 ~# NUM_SEGMENTS $end
$var reg 8 !$ ascii_0_temp [7:0] $end
$var reg 8 "$ ascii_1_temp [7:0] $end
$var reg 8 #$ ascii_2_temp [7:0] $end
$var reg 8 $$ ascii_3_temp [7:0] $end
$scope module display0 $end
$var wire 8 %$ ascii [7:0] $end
$var parameter 32 &$ ASCII_LEN $end
$var parameter 32 '$ NUM_SEGMENTS $end
$var reg 8 ($ HEX [7:0] $end
$upscope $end
$scope module display1 $end
$var wire 8 )$ ascii [7:0] $end
$var parameter 32 *$ ASCII_LEN $end
$var parameter 32 +$ NUM_SEGMENTS $end
$var reg 8 ,$ HEX [7:0] $end
$upscope $end
$scope module display2 $end
$var wire 8 -$ ascii [7:0] $end
$var parameter 32 .$ ASCII_LEN $end
$var parameter 32 /$ NUM_SEGMENTS $end
$var reg 8 0$ HEX [7:0] $end
$upscope $end
$scope module display3 $end
$var wire 8 1$ ascii [7:0] $end
$var parameter 32 2$ ASCII_LEN $end
$var parameter 32 3$ NUM_SEGMENTS $end
$var reg 8 4$ HEX [7:0] $end
$upscope $end
$upscope $end
$scope module ins_mem $end
$var wire 1 1 clk $end
$var wire 15 5$ addr [14:0] $end
$var parameter 32 6$ ADDR $end
$var parameter 32 7$ CODE_ADDR $end
$var parameter 64 8$ CODE_FILE $end
$var parameter 32 9$ CODE_SIZE $end
$var parameter 32 :$ DATA $end
$var reg 32 ;$ d_out [31:0] $end
$upscope $end
$scope module mem_load $end
$var wire 3 <$ funct3 [2:0] $end
$var wire 32 =$ in [31:0] $end
$var parameter 32 >$ F3_LEN $end
$var parameter 32 ?$ N $end
$var reg 32 @$ out [31:0] $end
$upscope $end
$scope module p_c $end
$var wire 1 1 clk $end
$var wire 1 L" en $end
$var wire 1 2 reset $end
$var wire 1 `" set $end
$var wire 15 A$ val [14:0] $end
$var parameter 32 B$ CODE_ADDR $end
$var parameter 32 C$ N $end
$var reg 15 D$ out [14:0] $end
$upscope $end
$scope begin FSM_State_Transition $end
$scope begin $ivl_for_loop0 $end
$var integer 32 E$ i [31:0] $end
$upscope $end
$upscope $end
$upscope $end
$upscope $end
$enddefinitions $end
$comment Show the parameter values. $end
$dumpall
b1111 C$
b0 B$
b100000 ?$
b11 >$
b100000 :$
b1000000000000000 9$
b110001101101111011001000110010100101110011010000110010101111000 8$
b0 7$
b1111 6$
b1000 3$
b1000 2$
b1000 /$
b1000 .$
b1000 +$
b1000 *$
b1000 '$
b1000 &$
b1000 ~#
b1000 }#
b100000 h#
b111 g#
b101 f#
b100000 e#
b1100 d#
b1111 c#
b1100 b#
b1101 a#
b111 `#
b11 _#
b100000 P#
b111 O#
b101 N#
b100000 M#
b1100 L#
b1111 K#
b1100 J#
b1101 I#
b111 H#
b11 G#
b100000 8#
b111 7#
b101 6#
b100000 5#
b1100 4#
b1111 3#
b1100 2#
b1101 1#
b111 0#
b11 /#
b100000 ~"
b111 }"
b101 |"
b100000 {"
b1100 z"
b1111 y"
b1100 x"
b1101 w"
b111 v"
b11 u"
b1000000000000000 p"
b110010001100001011101000110000100101110011010000110010101111000 o"
b0 n"
b100000 m"
b1111 l"
b100000 g"
b111 f"
b11 e"
b10010 D"
b100000 C"
b111 B"
b1000 A"
b101 @"
b1010 ?"
b100 >"
b1111 ="
b100 <"
b100000 ;"
b1100 :"
b1111 9"
b1100 8"
b1101 7"
b111 6"
b11 5"
b100000 4"
b1111 3"
b1000000000000000 2"
b110010001100001011101000110000100101110011010000110010101111000 1"
b0 0"
b1000000000000000 /"
b110001101101111011001000110010100101110011010000110010101111000 ."
b0 -"
b1000 ,"
b1000 +
b1010 *
b100 )
b1100100 (
$end
#0
$dumpvars
b0 E$
bx D$
bx A$
b0 @$
bx =$
bx <$
bx ;$
bx 5$
b11111111 4$
b100000 1$
b11111111 0$
b100000 -$
b11111111 ,$
b100000 )$
b11111111 ($
b100000 %$
b100000 $$
b100000 #$
b100000 "$
b100000 !$
b11111111 |#
b11111111 {#
b11111111 z#
b11111111 y#
bx x#
b100000 w#
b100000 v#
b100000 u#
b100000 t#
bx s#
bx r#
bx q#
bx p#
bx o#
bx n#
bx m#
bx l#
bx k#
bx j#
bx i#
bx ^#
bx ]#
bx \#
bx [#
bx Z#
bx Y#
bx X#
bx W#
bx V#
bx U#
bx T#
bx S#
bx R#
bx Q#
bx F#
bx E#
bx D#
bx C#
bx B#
bx A#
bx @#
bx ?#
bx >#
bx =#
bx <#
bx ;#
bx :#
bx 9#
bx .#
bx -#
bx ,#
bx +#
bx *#
bx )#
bx (#
bx '#
bx &#
bx %#
bx $#
bx ##
bx "#
bx !#
bx t"
bx s"
bx r"
bx q"
bx k"
bx j"
b0 i"
bx h"
bx d"
bx c"
bx b"
bx a"
x`"
bx _"
x^"
x]"
bx \"
bx ["
xZ"
xY"
xX"
bx W"
bx V"
xU"
xT"
bx S"
bx R"
bx Q"
bx P"
bx O"
bx N"
bx M"
xL"
bx K"
bx J"
bx I"
xH"
xG"
bx F"
bx E"
b11111111 +"
b11111111 *"
b11111111 )"
b11111111 ("
b0 '"
bx &"
x%"
x$"
x#"
x""
x!"
x~
x}
x|
x{
xz
xy
xx
b0 w
bx v
bx u
bx t
bx s
bx r
bx q
bx p
bx o
bx n
bx m
bx l
bx k
bx j
bx i
bx h
bx g
bx f
bx e
bx d
bx c
bx b
bx a
bx `
bx _
bx ^
bx ]
bx \
bx [
bx Z
xY
xX
xW
xV
xU
xT
xS
xR
xQ
xP
xO
xN
b0 M
xL
xK
xJ
xI
bx H
bx G
bx F
bx E
bx D
bx C
bx B
bx A
bx @
bx ?
bx >
bx =
bx <
bx ;
bx :
bx 9
bx 8
bx 7
x6
x5
x4
x3
12
01
bx0 0
b11111111 /
b11111111 .
bx0 -
0,
b11111111 '
b11111111 &
b11111111 %
b11111111 $
b0 #
b11111111 "
b11111111 !
$end
#50
x2
1L"
b0 N"
b0 \"
b0 k"
b0 ["
b0 j"
0]"
b0 O"
b0 A$
0`"
b0 C
b0 5$
b0 D$
bx0 f
bx0 %#
bx000000000000 ^
bx000000000000 '#
bx0 n
bx0 ##
bx0 e
bx0 =#
bx000000000000 ]
bx000000000000 ?#
bx0 m
bx0 ;#
bx0 d
bx0 U#
bx000000000000 \
bx000000000000 W#
bx0 l
bx0 S#
bx0 c
bx0 m#
bx000000000000 [
bx000000000000 o#
bx0 k
bx0 k#
b1 w
b1 i"
bx1 -
bx1 0
b11111 E$
11
1,
#100
01
0,
#150
b100 O"
b100 A$
b1111000000000110000000000000000 H
b1111000000000110000000000000000 q"
b1111000000000110000000000000000 x#
b1111000000000110000000000000000 =$
b10000000100110111 Z
b10000000100110111 ;$
b10 w
b10 i"
11
1,
#200
01
0,
#250
0{
06
0%"
b0 s"
b0 t"
0Y
0U
0Q
1L
0!"
b10000000100110111 P"
b10000000100110111 r"
b100 C
b100 5$
b100 D$
b11 w
b11 i"
11
1,
#300
01
0,
#350
0z
05
0$"
b0 -#
b0 .#
0X
0T
0P
1K
0~
b10000000100110111 Q"
b10000000100110111 ,#
b0 f
b0 %#
b10000000000000000 ^
b10000000000000000 '#
b10 n
b10 ##
b10 b
b10 &#
b0 j
b0 $#
b10 B
b10 )#
b0 :
b0 +#
b10 >
b10 *#
b0 r
b0 "#
b0 v
b0 !#
b110111 G
b110111 (#
b1000 C
b1000 5$
b1000 D$
b11111111000000010000000100010011 Z
b11111111000000010000000100010011 ;$
b100 w
b100 i"
11
1,
#400
01
0,
#450
0y
04
0#"
1%"
b0 E#
b0 F#
0W
0S
0O
1J
0}
0L
b10000000100110111 R"
b10000000100110111 D#
b11111111000000010000000100010011 P"
b11111111000000010000000100010011 r"
b1000000010010111 Z
b1000000010010111 ;$
b1100 C
b1100 5$
b1100 D$
b0 e
b0 =#
b10000000000000000 ]
b10000000000000000 ?#
b10 m
b10 ;#
b10 a
b10 >#
b0 i
b0 <#
b10 A
b10 A#
b0 9
b0 C#
b10 =
b10 B#
b0 q
b0 :#
b0 u
b0 9#
b110111 F
b110111 @#
b101 w
b101 i"
11
1,
#500
01
0,
#550
0x
03
0""
1$"
0%"
b0 ]#
b0 ^#
0V
0R
0N
1I
0|
0K
1!"
b0 &"
b0 h"
b10000000100110111 S"
b10000000100110111 \#
1^"
b0 K"
b0 b"
b0 E"
b0 a"
b11111111000000010000000100010011 Q"
b11111111000000010000000100010011 ,#
b1000000010010111 P"
b1000000010010111 r"
b0 d
b0 U#
b10000000000000000 \
b10000000000000000 W#
b10 l
b10 S#
b10 `
b10 V#
b0 h
b0 T#
b10 @
b10 Y#
b0 8
b0 [#
b10 <
b10 Z#
b0 p
b0 c"
b0 R#
b0 t
b0 d"
b0 Q#
b110111 E
b110111 X#
b11111110000 f
b11111110000 %#
b11111111000000010000000000000000 ^
b11111111000000010000000000000000 '#
b1011111100010 n
b1011111100010 ##
b111111100010 b
b111111100010 &#
b111111110000 j
b111111110000 $#
b10000 :
b10000 +#
b1111111 r
b1111111 "#
b10011 G
b10011 (#
b10000 C
b10000 5$
b10000 D$
b1001101000001010000010000011 Z
b1001101000001010000010000011 ;$
b110 w
b110 i"
11
1,
#600
01
0,
#650
1#"
0$"
b10000000000000000 &"
b10000000000000000 h"
0J
1~
1Q
0!"
0G"
0X"
0U"
0T"
0H"
1Z"
b0 F"
b10000000000000000 E"
b10000000000000000 a"
b11111111000000010000000100010011 R"
b11111111000000010000000100010011 D#
b1000000010010111 Q"
b1000000010010111 ,#
b1001101000001010000010000011 P"
b1001101000001010000010000011 r"
b110100000000000000011101111 Z
b110100000000000000011101111 ;$
b10100 C
b10100 5$
b10100 D$
b0 f
b0 %#
b1000000000000000 ^
b1000000000000000 '#
b100000000000 n
b100000000000 ##
b1 b
b1 &#
b0 j
b0 $#
b1 B
b1 )#
b0 :
b0 +#
b1 >
b1 *#
b0 r
b0 "#
b10111 G
b10111 (#
b11111110000 e
b11111110000 =#
b11111111000000010000000000000000 ]
b11111111000000010000000000000000 ?#
b1011111100010 m
b1011111100010 ;#
b111111100010 a
b111111100010 >#
b111111110000 i
b111111110000 <#
b10000 9
b10000 C#
b1111111 q
b1111111 :#
b10011 F
b10011 @#
b0 c
b0 m#
b10000000000000000 [
b10000000000000000 o#
b10 k
b10 k#
b10 _
b10 n#
b0 g
b0 l#
b10 ?
b10 q#
b0 7
b0 s#
b10 ;
b10 r#
b0 o
b0 j#
b0 s
b0 i#
b110111 D
b110111 p#
b111 w
b111 i"
11
1,
#700
01
0,
#750
1""
0#"
0I
1}
1P
0~
0Q
b1111111111110000 &"
b1111111111110000 h"
b0 E#
b10000000000000000 ]#
b0 M"
b0 <$
0Y"
b10 _"
b10000000000000000 F"
b11111111000000010000000100010011 S"
b11111111000000010000000100010011 \#
0^"
b11111111111111111111111111110000 K"
b11111111111111111111111111110000 b"
b1000000010010111 R"
b1000000010010111 D#
b1001101000001010000010000011 Q"
b1001101000001010000010000011 ,#
b1 N"
b11100 P"
b11100 r"
b11111110000 d
b11111110000 U#
b11111111000000010000000000000000 \
b11111111000000010000000000000000 W#
b1011111100010 l
b1011111100010 S#
b111111100010 `
b111111100010 V#
b111111110000 h
b111111110000 T#
b10000 8
b10000 [#
b1111111 p
b1111111 c"
b1111111 R#
b10011 E
b10011 X#
b0 e
b0 =#
b1000000000000000 ]
b1000000000000000 ?#
b100000000000 m
b100000000000 ;#
b1 a
b1 >#
b0 i
b0 <#
b1 A
b1 A#
b0 9
b0 C#
b1 =
b1 B#
b0 q
b0 :#
b10111 F
b10111 @#
b10000010011010 f
b10000010011010 %#
b1001101000001010000000000000 ^
b1001101000001010000000000000 '#
b100010000000 n
b100010000000 ##
b10000001 b
b10000001 &#
b10011010 j
b10011010 $#
b11010 :
b11010 +#
b100 r
b100 "#
b10 v
b10 !#
b11 G
b11 (#
b11000 C
b11000 5$
b11000 D$
b1101010000000000000011101111 Z
b1101010000000000000011101111 ;$
b1000 w
b1000 i"
11
1,
#800
01
0,
#850
0""
b0 ]#
1|
1O
0}
0P
b0 &"
b0 h"
1G"
0Z"
b1111111111110000 F"
b1000000010010111 S"
b1000000010010111 \#
b1000000000001000 I"
1^"
b0 K"
b0 b"
b0 E"
b0 a"
b111111111110100 O"
b111111111110100 A$
b1001101000001010000010000011 R"
b1001101000001010000010000011 D#
b11100 Q"
b11100 ,#
b10 N"
b11111110100111111111000001101111 Z
b11111110100111111111000001101111 ;$
b11100 C
b11100 5$
b11100 D$
b0 f
b0 %#
b0 ^
b0 '#
b0 n
b0 ##
b0 b
b0 &#
b0 j
b0 $#
b0 B
b0 )#
b0 :
b0 +#
b0 >
b0 *#
b0 r
b0 "#
b0 v
b0 !#
b11100 G
b11100 (#
b10000010011010 e
b10000010011010 =#
b1001101000001010000000000000 ]
b1001101000001010000000000000 ?#
b100010000000 m
b100010000000 ;#
b10000001 a
b10000001 >#
b10011010 i
b10011010 <#
b11010 9
b11010 C#
b100 q
b100 :#
b10 u
b10 9#
b11 F
b11 @#
b0 d
b0 U#
b1000000000000000 \
b1000000000000000 W#
b100000000000 l
b100000000000 S#
b1 `
b1 V#
b0 h
b0 T#
b1 @
b1 Y#
b0 8
b0 [#
b1 <
b1 Z#
b0 p
b0 c"
b0 R#
b10111 E
b10111 X#
b11111110000 c
b11111110000 m#
b11111111000000010000000000000000 [
b11111111000000010000000000000000 o#
b1011111100010 k
b1011111100010 k#
b111111100010 _
b111111100010 n#
b111111110000 g
b111111110000 l#
b10000 7
b10000 s#
b1111111 o
b1111111 j#
b10011 D
b10011 p#
b1001 w
b1001 i"
11
1,
#900
01
0,
#950
1N
0|
0O
0G"
1H"
b0 F"
b1000000000001000 J"
b1001101000001010000010000011 S"
b1001101000001010000010000011 \#
b1000000000001000 E"
b1000000000001000 a"
b100 O"
b100 A$
b11100 R"
b11100 D#
b11 N"
b0 c
b0 m#
b1000000000000000 [
b1000000000000000 o#
b100000000000 k
b100000000000 k#
b1 _
b1 n#
b0 g
b0 l#
b1 ?
b1 q#
b0 7
b0 s#
b1 ;
b1 r#
b0 o
b0 j#
b10111 D
b10111 p#
b10000010011010 d
b10000010011010 U#
b1001101000001010000000000000 \
b1001101000001010000000000000 W#
b100010000000 l
b100010000000 S#
b10000001 `
b10000001 V#
b10011010 h
b10011010 T#
b11010 8
b11010 [#
b100 p
b100 c"
b100 R#
b10 t
b10 d"
b10 Q#
b11 E
b11 X#
b0 e
b0 =#
b0 ]
b0 ?#
b0 m
b0 ;#
b0 a
b0 >#
b0 i
b0 <#
b0 A
b0 A#
b0 9
b0 C#
b0 =
b0 B#
b0 q
b0 :#
b0 u
b0 9#
b11100 F
b11100 @#
b10000 C
b10000 5$
b10000 D$
b11111010101111000001000010110111 Z
b11111010101111000001000010110111 ;$
b1010 w
b1010 i"
11
1,
#1000
01
0,
#1050
0N
b0 ]#
b1 _"
1X"
0H"
b10100010 ["
b10100010 j"
b11100 S"
b11100 \#
b0 E"
b0 a"
b0 N"
b110100000000000000011101111 Z
b110100000000000000011101111 ;$
b10100 C
b10100 5$
b10100 D$
b0 d
b0 U#
b0 \
b0 W#
b0 l
b0 S#
b0 `
b0 V#
b0 h
b0 T#
b0 @
b0 Y#
b0 8
b0 [#
b0 <
b0 Z#
b0 p
b0 c"
b0 R#
b0 t
b0 d"
b0 Q#
b11100 E
b11100 X#
b10000010011010 c
b10000010011010 m#
b1001101000001010000000000000 [
b1001101000001010000000000000 o#
b100010000000 k
b100010000000 k#
b10000001 _
b10000001 n#
b10011010 g
b10011010 l#
b11010 7
b11010 s#
b100 o
b100 j#
b10 s
b10 i#
b11 D
b11 p#
b1011 w
b1011 i"
11
1,
#1100
01
0,
#1150
1Y
b10 M"
b10 <$
1Y"
0X"
b110100000000000000011101111 P"
b110100000000000000011101111 r"
b0 c
b0 m#
b0 [
b0 o#
b0 k
b0 k#
b0 _
b0 n#
b0 g
b0 l#
b0 ?
b0 q#
b0 7
b0 s#
b0 ;
b0 r#
b0 o
b0 j#
b0 s
b0 i#
b11100 D
b11100 p#
b11000 C
b11000 5$
b11000 D$
b0 H
b0 q"
b0 x#
b0 =$
b1101010000000000000011101111 Z
b1101010000000000000011101111 ;$
b1100 w
b1100 i"
11
1,
#1200
01
0,
#1250
1X
0Y
b0 M"
b0 <$
0Y"
b0 _"
b110100000000000000011101111 Q"
b110100000000000000011101111 ,#
b1 N"
b11100 P"
b11100 r"
b11111110100111111111000001101111 Z
b11111110100111111111000001101111 ;$
b11100 C
b11100 5$
b11100 D$
b1101000 f
b1101000 %#
b110100000000000000000000000 ^
b110100000000000000000000000 '#
b100001100000 n
b100001100000 ##
b1100001 b
b1100001 &#
b1101000 j
b1101000 $#
b1 B
b1 )#
b1000 :
b1000 +#
b11 r
b11 "#
b1101111 G
b1101111 (#
b1101 w
b1101 i"
11
1,
#1300
01
0,
